Model calibration – demography
…
The main parameter values are consistent with our expectations.

Code

c("lambda_s", "tau_s", "theta_s", "omega_s") |>
  fit_flux_all$summary() |>
  separate(variable, c("variable", NA, "sitenum")) |>
  mutate(sitenum = as.numeric(sitenum)) |>
  left_join(unique(data_old[, c("sitenum", "Site")])) |>
  select(variable, Site, mean, median, q5, q95, rhat)

# A tibble: 32 × 7
   variable Site           mean median    q5   q95  rhat
   <chr>    <chr>         <dbl>  <dbl> <dbl> <dbl> <dbl>
 1 lambda   Corinto       1.92   1.82  1.21   2.95  1.30
 2 lambda   Lesong        1.51   1.50  0.991  2.13  1.11
 3 lambda   Mbaiki        1.63   1.61  1.34   1.98  1.21
 4 lambda   Paracou       0.932  0.927 0.762  1.12  1.32
 5 lambda   SUAS          1.87   1.75  1.17   2.90  1.07
 6 lambda   Sungai Lalang 2.01   1.94  1.29   2.91  1.14
 7 lambda   Tapajos Km67  2.29   2.25  1.67   3.22  1.09
 8 lambda   Ulu Muda      1.81   1.74  1.19   2.71  1.20
 9 tau      Corinto       5.62   5.61  4.45   6.82  1.05
10 tau      Lesong        4.82   4.83  4.39   5.22  1.01
# ℹ 22 more rows

Rhat superior to 1.5:

Code

rhat_all <- summarise_draws(fit_flux_all$draws(), "rhat")
rhat_all %>% filter(rhat > 1.5)

# A tibble: 179 × 2
   variable    rhat
   <chr>      <dbl>
 1 mu_alpha    3.15
 2 alpha_p[1]  2.72
 3 alpha_p[2]  2.61
 4 alpha_p[3]  2.68
 5 alpha_p[4]  2.57
 6 alpha_p[5]  2.70
 7 alpha_p[6]  2.67
 8 alpha_p[7]  2.73
 9 alpha_p[8]  2.61
10 alpha_p[9]  2.65
# ℹ 169 more rows
…
Rhat superior to 1.5:

Code

rhat_all <- summarise_draws(fit_flux_all_Ksite$draws(), "rhat")
rhat_all %>% filter(rhat > 1.5)

# A tibble: 432 × 2
   variable     rhat
   <chr>       <dbl>
 1 lp__         1.94
 2 mu_lambda    1.58
 3 lambda_s[1]  1.53
 4 lambda_s[2]  1.60
 5 lambda_s[3]  1.78
 6 lambda_s[4]  2.11
 7 mu_alpha     3.37
 8 sigma_alpha  1.59
 9 alpha_p[1]   3.24
10 alpha_p[2]   3.29
# ℹ 422 more rows
…
Rhat superior to 1.5:

Code

rhat_all <- summarise_draws(fit_flux_all_K$draws(), "rhat")
rhat_all %>% filter(rhat > 1.5)

# A tibble: 209 × 2
   variable     rhat
   <chr>       <dbl>
 1 lp__         1.87
 2 mu_alpha     2.87
 3 sigma_alpha  1.81
 4 alpha_p[1]   2.40
 5 alpha_p[2]   2.32
 6 alpha_p[3]   2.28
 7 alpha_p[4]   2.28
 8 alpha_p[5]   2.32
 9 alpha_p[6]   2.35
10 alpha_p[7]   2.27
# ℹ 199 more rows
…
Rhat superior to 1.5:

Code

rhat_all <- summarise_draws(fit_flux_all_Ks_nh$draws(), "rhat")
rhat_all %>% filter(rhat > 1.5)

# A tibble: 179 × 2
   variable    rhat
   <chr>      <dbl>
 1 mu_alpha    2.36
 2 alpha_p[1]  1.88
 3 alpha_p[2]  1.94
 4 alpha_p[3]  1.85
 5 alpha_p[4]  1.88
 6 alpha_p[5]  1.96
 7 alpha_p[6]  1.85
 8 alpha_p[7]  1.90
 9 alpha_p[8]  1.89
10 alpha_p[9]  1.83
# ℹ 169 more rows
…
